EESchema Schematic File Version 4
EELAYER 30 0
EELAYER END
$Descr A4 11693 8268
encoding utf-8
Sheet 1 1
Title ""
Date ""
Rev ""
Comp ""
Comment1 ""
Comment2 ""
Comment3 ""
Comment4 ""
$EndDescr
$Comp
L Connector_Generic:Conn_02x13_Odd_Even J1
U 1 1 604677C2
P 2650 1950
F 0 "J1" H 2700 2767 50  0000 C CNN
F 1 "Conn_02x13_Odd_Even" H 2700 2676 50  0000 C CNN
F 2 "Connector_PinSocket_2.54mm:PinSocket_2x13_P2.54mm_Vertical" H 2650 1950 50  0001 C CNN
F 3 "~" H 2650 1950 50  0001 C CNN
	1    2650 1950
	1    0    0    -1  
$EndComp
$Comp
L Connector_Generic:Conn_02x04_Odd_Even J2
U 1 1 604699E3
P 2500 6450
F 0 "J2" H 2550 6767 50  0000 C CNN
F 1 "Conn_02x04_Odd_Even" H 2550 6676 50  0000 C CNN
F 2 "Connector_PinSocket_2.54mm:PinSocket_2x04_P2.54mm_Vertical" H 2500 6450 50  0001 C CNN
F 3 "~" H 2500 6450 50  0001 C CNN
	1    2500 6450
	1    0    0    -1  
$EndComp
Text Label 2000 6350 0    50   ~ 0
GND
Text Label 3150 6350 2    50   ~ 0
GND
Text Label 2000 6450 0    50   ~ 0
DP1
Text Label 2000 6550 0    50   ~ 0
DM1
Text Label 2000 6650 0    50   ~ 0
+5V
Text Label 3150 6450 2    50   ~ 0
OTG_DP
Text Label 3150 6550 2    50   ~ 0
OTG_DM
Text Label 3150 6650 2    50   ~ 0
+5V
Wire Wire Line
	2000 6350 2300 6350
Wire Wire Line
	2000 6450 2300 6450
Wire Wire Line
	2000 6550 2300 6550
Wire Wire Line
	2000 6650 2300 6650
Wire Wire Line
	2800 6350 3150 6350
Wire Wire Line
	2800 6450 3150 6450
Wire Wire Line
	2800 6550 3150 6550
Wire Wire Line
	2800 6650 3150 6650
Text Label 2000 1450 0    50   ~ 0
I2C0_SDA
Text Label 2000 1550 0    50   ~ 0
I2C0_SCL
Text Label 2000 1650 0    50   ~ 0
GPIO2_A2
Text Label 2000 1850 0    50   ~ 0
I2S1_MCLK
Text Label 2000 1950 0    50   ~ 0
I2S1_LRCK
Text Label 2000 2050 0    50   ~ 0
I2S1_SCLK
Text Label 2000 2250 0    50   ~ 0
SPI_TXD
Text Label 2000 2350 0    50   ~ 0
SPI_RXD
Text Label 2000 2450 0    50   ~ 0
SPI_CLK
Wire Wire Line
	2000 1350 2450 1350
Wire Wire Line
	2000 1450 2450 1450
Wire Wire Line
	2000 1550 2450 1550
Wire Wire Line
	2000 1650 2450 1650
Wire Wire Line
	1850 1750 2450 1750
Wire Wire Line
	2000 1850 2450 1850
Wire Wire Line
	2000 1950 2450 1950
Wire Wire Line
	2000 2050 2450 2050
Wire Wire Line
	2000 2150 2450 2150
Wire Wire Line
	2000 2250 2450 2250
Wire Wire Line
	2000 2350 2450 2350
Wire Wire Line
	2000 2450 2450 2450
Wire Wire Line
	2000 2550 2450 2550
Text Label 3450 1650 2    50   ~ 0
UART1_TX
Text Label 3450 1750 2    50   ~ 0
UART1_RX
Text Label 3450 1850 2    50   ~ 0
I2S1_SDI
Text Label 3450 2050 2    50   ~ 0
UART1_RTSN
Text Label 3450 2150 2    50   ~ 0
UART1_CTSN
Text Label 3450 2350 2    50   ~ 0
I2S1_SDO
Text Label 3450 2450 2    50   ~ 0
SPI_CSN0
Text Label 3450 2550 2    50   ~ 0
SPDIF_TX
Wire Wire Line
	2950 1350 3450 1350
Wire Wire Line
	2950 1450 3550 1450
Wire Wire Line
	2950 1550 3600 1550
Wire Wire Line
	2950 1650 3450 1650
Wire Wire Line
	2950 1750 3450 1750
Wire Wire Line
	2950 1850 3450 1850
Wire Wire Line
	2950 1950 3600 1950
Wire Wire Line
	2950 2050 3450 2050
Wire Wire Line
	2950 2150 3450 2150
Wire Wire Line
	2950 2250 3600 2250
Wire Wire Line
	2950 2350 3450 2350
Wire Wire Line
	2950 2450 3450 2450
Wire Wire Line
	2950 2550 3450 2550
$Comp
L Skytraq:PX1122C U1
U 1 1 60480BA0
P 8050 2100
F 0 "U1" H 8050 3015 50  0000 C CNN
F 1 "PX1122C" H 8050 2924 50  0000 C CNN
F 2 "Skytraq:module-24DIL" H 8050 2833 50  0000 C CNN
F 3 "" H 8050 1450 50  0001 C CNN
	1    8050 2100
	1    0    0    -1  
$EndComp
NoConn ~ 7500 2200
NoConn ~ 7500 1500
Text Label 6950 1700 0    50   ~ 0
UART1_CTSN
Text Label 9050 1800 2    50   ~ 0
UART1_TX
Text Label 9050 1900 2    50   ~ 0
UART1_RX
Wire Wire Line
	9050 1800 8600 1800
Wire Wire Line
	9050 1900 8600 1900
Wire Wire Line
	6950 1700 7500 1700
Wire Wire Line
	7500 2400 7450 2400
Wire Wire Line
	7450 2400 7450 2600
Wire Wire Line
	7450 2600 7500 2600
$Comp
L dk_Coaxial-Connectors-RF:U_FL-R-SMT_10_ J3
U 1 1 6048D021
P 6650 2500
F 0 "J3" H 6728 2725 50  0000 C CNN
F 1 "U_FL-R-SMT_10_" H 6728 2634 50  0000 C CNN
F 2 "Skytraq:Combination_U.FL_SMA" H 6850 2700 60  0001 L CNN
F 3 "https://media.digikey.com/pdf/Data%20Sheets/Hirose%20PDFs/UFL%20Series.pdf" H 6850 2800 60  0001 L CNN
F 4 "H9161CT-ND" H 6850 2900 60  0001 L CNN "Digi-Key_PN"
F 5 "U.FL-R-SMT(10)" H 6850 3000 60  0001 L CNN "MPN"
F 6 "Connectors, Interconnects" H 6850 3100 60  0001 L CNN "Category"
F 7 "Coaxial Connectors (RF)" H 6850 3200 60  0001 L CNN "Family"
F 8 "https://media.digikey.com/pdf/Data%20Sheets/Hirose%20PDFs/UFL%20Series.pdf" H 6850 3300 60  0001 L CNN "DK_Datasheet_Link"
F 9 "/product-detail/en/hirose-electric-co-ltd/U.FL-R-SMT(10)/H9161CT-ND/2135256" H 6850 3400 60  0001 L CNN "DK_Detail_Page"
F 10 "CONN U.FL RCPT STR 50 OHM SMD" H 6850 3500 60  0001 L CNN "Description"
F 11 "Hirose Electric Co Ltd" H 6850 3600 60  0001 L CNN "Manufacturer"
F 12 "Active" H 6850 3700 60  0001 L CNN "Status"
	1    6650 2500
	1    0    0    -1  
$EndComp
Wire Wire Line
	7500 2500 6850 2500
$Comp
L power:GND #PWR0101
U 1 1 6048E6B4
P 7350 2600
F 0 "#PWR0101" H 7350 2350 50  0001 C CNN
F 1 "GND" H 7355 2427 50  0000 C CNN
F 2 "" H 7350 2600 50  0001 C CNN
F 3 "" H 7350 2600 50  0001 C CNN
	1    7350 2600
	1    0    0    -1  
$EndComp
$Comp
L power:GND #PWR0102
U 1 1 6048EAA9
P 8700 2600
F 0 "#PWR0102" H 8700 2350 50  0001 C CNN
F 1 "GND" H 8705 2427 50  0000 C CNN
F 2 "" H 8700 2600 50  0001 C CNN
F 3 "" H 8700 2600 50  0001 C CNN
	1    8700 2600
	1    0    0    -1  
$EndComp
Wire Wire Line
	8600 2600 8700 2600
Wire Wire Line
	7350 2600 7450 2600
Connection ~ 7450 2600
$Comp
L Device:CP C1
U 1 1 6049502A
P 6600 4000
F 0 "C1" H 6718 4046 50  0000 L CNN
F 1 "1uF" H 6718 3955 50  0000 L CNN
F 2 "Capacitor_SMD:CP_Elec_5x5.4" H 6638 3850 50  0001 C CNN
F 3 "~" H 6600 4000 50  0001 C CNN
	1    6600 4000
	1    0    0    -1  
$EndComp
$Comp
L Device:CP C2
U 1 1 6049563E
P 7450 4000
F 0 "C2" H 7568 4046 50  0000 L CNN
F 1 "1uF" H 7568 3955 50  0000 L CNN
F 2 "Capacitor_SMD:CP_Elec_5x5.4" H 7488 3850 50  0001 C CNN
F 3 "~" H 7450 4000 50  0001 C CNN
	1    7450 4000
	1    0    0    -1  
$EndComp
$Comp
L Device:R R1
U 1 1 60495FF6
P 7100 4000
F 0 "R1" H 7170 4046 50  0000 L CNN
F 1 "390" H 7170 3955 50  0000 L CNN
F 2 "Resistor_SMD:R_0603_1608Metric" V 7030 4000 50  0001 C CNN
F 3 "~" H 7100 4000 50  0001 C CNN
	1    7100 4000
	1    0    0    -1  
$EndComp
$Comp
L power:GND #PWR0103
U 1 1 60498C04
P 7600 4850
F 0 "#PWR0103" H 7600 4600 50  0001 C CNN
F 1 "GND" H 7605 4677 50  0000 C CNN
F 2 "" H 7600 4850 50  0001 C CNN
F 3 "" H 7600 4850 50  0001 C CNN
	1    7600 4850
	1    0    0    -1  
$EndComp
$Comp
L Device:D_Schottky_Small D1
U 1 1 6049997A
P 6850 3700
F 0 "D1" H 6850 3493 50  0000 C CNN
F 1 "D_Schottky_Small" H 6850 3584 50  0000 C CNN
F 2 "Skytraq:RB420DFHT146" V 6850 3700 50  0001 C CNN
F 3 "~" V 6850 3700 50  0001 C CNN
	1    6850 3700
	-1   0    0    1   
$EndComp
Wire Wire Line
	6200 3700 6600 3700
Wire Wire Line
	6600 3700 6600 3850
Connection ~ 6600 3700
Wire Wire Line
	6600 3700 6750 3700
Wire Wire Line
	6950 3700 7100 3700
Wire Wire Line
	7100 3700 7100 3850
Wire Wire Line
	7100 3700 7450 3700
Wire Wire Line
	7450 3700 7450 3850
Connection ~ 7100 3700
Wire Wire Line
	7100 4150 7100 4300
Wire Wire Line
	7750 3700 7450 3700
Connection ~ 7450 3700
$Comp
L SparkFun-Batteries:BATTERY-20MM_SMD BT1
U 1 1 60496FFC
P 7100 4500
F 0 "BT1" V 7005 4678 45  0000 L CNN
F 1 "BATTERY-20MM_SMD" V 7089 4678 45  0000 L CNN
F 2 "BATTCON_20MM" H 7100 4750 20  0001 C CNN
F 3 "" H 7100 4500 50  0001 C CNN
F 4 "BATT-11519" V 7184 4678 60  0000 L CNN "Field4"
	1    7100 4500
	0    1    1    0   
$EndComp
Wire Wire Line
	7450 4150 7450 4850
Wire Wire Line
	7100 4700 7100 4850
Wire Wire Line
	7100 4850 7450 4850
Connection ~ 7450 4850
Wire Wire Line
	6600 4850 7100 4850
Wire Wire Line
	6600 4150 6600 4850
Connection ~ 7100 4850
Wire Wire Line
	7450 4850 7600 4850
$Comp
L power:GND #PWR0104
U 1 1 604C20DC
P 6650 2700
F 0 "#PWR0104" H 6650 2450 50  0001 C CNN
F 1 "GND" H 6655 2527 50  0000 C CNN
F 2 "" H 6650 2700 50  0001 C CNN
F 3 "" H 6650 2700 50  0001 C CNN
	1    6650 2700
	1    0    0    -1  
$EndComp
$Comp
L power:GND #PWR?
U 1 1 604C89B0
P 3600 1550
F 0 "#PWR?" H 3600 1300 50  0001 C CNN
F 1 "GND" H 3605 1377 50  0000 C CNN
F 2 "" H 3600 1550 50  0001 C CNN
F 3 "" H 3600 1550 50  0001 C CNN
	1    3600 1550
	1    0    0    -1  
$EndComp
$Comp
L power:GND #PWR?
U 1 1 604C8C98
P 3600 2250
F 0 "#PWR?" H 3600 2000 50  0001 C CNN
F 1 "GND" H 3605 2077 50  0000 C CNN
F 2 "" H 3600 2250 50  0001 C CNN
F 3 "" H 3600 2250 50  0001 C CNN
	1    3600 2250
	1    0    0    -1  
$EndComp
$Comp
L power:GND #PWR?
U 1 1 604CC5A2
P 1850 1750
F 0 "#PWR?" H 1850 1500 50  0001 C CNN
F 1 "GND" H 1855 1577 50  0000 C CNN
F 2 "" H 1850 1750 50  0001 C CNN
F 3 "" H 1850 1750 50  0001 C CNN
	1    1850 1750
	1    0    0    -1  
$EndComp
$Comp
L power:GND #PWR?
U 1 1 604CCA0E
P 2000 2550
F 0 "#PWR?" H 2000 2300 50  0001 C CNN
F 1 "GND" H 2005 2377 50  0000 C CNN
F 2 "" H 2000 2550 50  0001 C CNN
F 3 "" H 2000 2550 50  0001 C CNN
	1    2000 2550
	1    0    0    -1  
$EndComp
$Comp
L power:+3.3V #PWR?
U 1 1 604CEAA5
P 2000 1350
F 0 "#PWR?" H 2000 1200 50  0001 C CNN
F 1 "+3.3V" H 2015 1523 50  0000 C CNN
F 2 "" H 2000 1350 50  0001 C CNN
F 3 "" H 2000 1350 50  0001 C CNN
	1    2000 1350
	1    0    0    -1  
$EndComp
$Comp
L power:+5V #PWR?
U 1 1 604CF506
P 3450 1350
F 0 "#PWR?" H 3450 1200 50  0001 C CNN
F 1 "+5V" H 3465 1523 50  0000 C CNN
F 2 "" H 3450 1350 50  0001 C CNN
F 3 "" H 3450 1350 50  0001 C CNN
	1    3450 1350
	1    0    0    -1  
$EndComp
$Comp
L power:+5V #PWR?
U 1 1 604CFACA
P 3550 1450
F 0 "#PWR?" H 3550 1300 50  0001 C CNN
F 1 "+5V" H 3565 1623 50  0000 C CNN
F 2 "" H 3550 1450 50  0001 C CNN
F 3 "" H 3550 1450 50  0001 C CNN
	1    3550 1450
	1    0    0    -1  
$EndComp
$Comp
L power:GND #PWR?
U 1 1 604D1851
P 3600 1950
F 0 "#PWR?" H 3600 1700 50  0001 C CNN
F 1 "GND" H 3605 1777 50  0000 C CNN
F 2 "" H 3600 1950 50  0001 C CNN
F 3 "" H 3600 1950 50  0001 C CNN
	1    3600 1950
	1    0    0    -1  
$EndComp
$Comp
L power:+3.3V #PWR?
U 1 1 604D6793
P 6200 3700
F 0 "#PWR?" H 6200 3550 50  0001 C CNN
F 1 "+3.3V" H 6215 3873 50  0000 C CNN
F 2 "" H 6200 3700 50  0001 C CNN
F 3 "" H 6200 3700 50  0001 C CNN
	1    6200 3700
	1    0    0    -1  
$EndComp
$Comp
L power:+BATT #PWR?
U 1 1 604D6D87
P 7750 3700
F 0 "#PWR?" H 7750 3550 50  0001 C CNN
F 1 "+BATT" H 7765 3873 50  0000 C CNN
F 2 "" H 7750 3700 50  0001 C CNN
F 3 "" H 7750 3700 50  0001 C CNN
	1    7750 3700
	1    0    0    -1  
$EndComp
$Comp
L power:GND #PWR?
U 1 1 604D80FF
P 8700 1300
F 0 "#PWR?" H 8700 1050 50  0001 C CNN
F 1 "GND" H 8705 1127 50  0000 C CNN
F 2 "" H 8700 1300 50  0001 C CNN
F 3 "" H 8700 1300 50  0001 C CNN
	1    8700 1300
	1    0    0    -1  
$EndComp
$Comp
L power:+3.3V #PWR?
U 1 1 604D8895
P 8850 1650
F 0 "#PWR?" H 8850 1500 50  0001 C CNN
F 1 "+3.3V" H 8865 1823 50  0000 C CNN
F 2 "" H 8850 1650 50  0001 C CNN
F 3 "" H 8850 1650 50  0001 C CNN
	1    8850 1650
	1    0    0    -1  
$EndComp
$Comp
L power:+BATT #PWR?
U 1 1 604D9076
P 9050 1700
F 0 "#PWR?" H 9050 1550 50  0001 C CNN
F 1 "+BATT" H 9065 1873 50  0000 C CNN
F 2 "" H 9050 1700 50  0001 C CNN
F 3 "" H 9050 1700 50  0001 C CNN
	1    9050 1700
	1    0    0    -1  
$EndComp
Wire Wire Line
	8600 1700 9050 1700
Wire Wire Line
	8600 1500 8600 1300
Wire Wire Line
	8600 1300 8700 1300
Wire Wire Line
	8850 1650 8600 1650
Wire Wire Line
	8600 1650 8600 1600
$EndSCHEMATC
