EESchema Schematic File Version 4
EELAYER 30 0
EELAYER END
$Descr A3 16535 11693
encoding utf-8
Sheet 1 1
Title "Raspberry Pi 4 Skytraq PX1122C hat"
Date ""
Rev "A"
Comp ""
Comment1 ""
Comment2 ""
Comment3 ""
Comment4 ""
$EndDescr
$Comp
L Mechanical:MountingHole H1
U 1 1 5834BC4A
P 5650 6000
F 0 "H1" H 5500 6100 60  0000 C CNN
F 1 "3mm_Mounting_Hole" H 5650 5850 60  0000 C CNN
F 2 "project_footprints:NPTH_3mm_ID" H 5550 6000 60  0001 C CNN
F 3 "" H 5550 6000 60  0001 C CNN
	1    5650 6000
	1    0    0    -1  
$EndComp
$Comp
L Mechanical:MountingHole H2
U 1 1 5834BCDF
P 6650 6000
F 0 "H2" H 6500 6100 60  0000 C CNN
F 1 "3mm_Mounting_Hole" H 6650 5850 60  0000 C CNN
F 2 "project_footprints:NPTH_3mm_ID" H 6550 6000 60  0001 C CNN
F 3 "" H 6550 6000 60  0001 C CNN
	1    6650 6000
	1    0    0    -1  
$EndComp
$Comp
L Mechanical:MountingHole H3
U 1 1 5834BD62
P 5650 6550
F 0 "H3" H 5500 6650 60  0000 C CNN
F 1 "3mm_Mounting_Hole" H 5650 6400 60  0000 C CNN
F 2 "project_footprints:NPTH_3mm_ID" H 5550 6550 60  0001 C CNN
F 3 "" H 5550 6550 60  0001 C CNN
	1    5650 6550
	1    0    0    -1  
$EndComp
$Comp
L Mechanical:MountingHole H4
U 1 1 5834BDED
P 6700 6550
F 0 "H4" H 6550 6650 60  0000 C CNN
F 1 "3mm_Mounting_Hole" H 6700 6400 60  0000 C CNN
F 2 "project_footprints:NPTH_3mm_ID" H 6600 6550 60  0001 C CNN
F 3 "" H 6600 6550 60  0001 C CNN
	1    6700 6550
	1    0    0    -1  
$EndComp
Text Label 3150 7400 2    60   ~ 0
P3V3
$Comp
L raspberrypi_hat:CAT24C32 U2
U 1 1 58E1713F
P 2100 5850
F 0 "U2" H 2450 6200 50  0000 C CNN
F 1 "CAT24C32" H 1850 6200 50  0000 C CNN
F 2 "Package_SOIC:SOIC-8_3.9x4.9mm_P1.27mm" H 2100 5850 50  0001 C CNN
F 3 "" H 2100 5850 50  0000 C CNN
	1    2100 5850
	1    0    0    -1  
$EndComp
$Comp
L Device:R R6
U 1 1 58E17715
P 2350 7400
F 0 "R6" V 2430 7400 50  0000 C CNN
F 1 "3.9K" V 2350 7400 50  0000 C CNN
F 2 "Resistor_SMD:R_0603_1608Metric_Pad0.84x1.00mm_HandSolder" V 2280 7400 50  0001 C CNN
F 3 "" H 2350 7400 50  0001 C CNN
	1    2350 7400
	0    1    1    0   
$EndComp
$Comp
L Device:R R8
U 1 1 58E17720
P 2350 7650
F 0 "R8" V 2430 7650 50  0000 C CNN
F 1 "3.9K" V 2350 7650 50  0000 C CNN
F 2 "Resistor_SMD:R_0603_1608Metric_Pad0.84x1.00mm_HandSolder" V 2280 7650 50  0001 C CNN
F 3 "" H 2350 7650 50  0001 C CNN
	1    2350 7650
	0    1    1    0   
$EndComp
Wire Wire Line
	2500 7400 2700 7400
Wire Wire Line
	2700 7650 2500 7650
Connection ~ 2700 7400
Text Label 1250 7400 0    60   ~ 0
ID_SD_EEPROM
Text Label 1250 7650 0    60   ~ 0
ID_SC_EEPROM
Wire Wire Line
	3450 6050 2600 6050
Wire Wire Line
	2600 5950 3450 5950
Text Label 3450 6050 2    60   ~ 0
ID_SD_EEPROM
Text Label 3450 5950 2    60   ~ 0
ID_SC_EEPROM
$Comp
L Connector_Generic:Conn_01x02 J9
U 1 1 58E18D32
P 750 6150
F 0 "J9" H 750 6300 50  0000 C CNN
F 1 "CONN_01X02" V 850 6150 50  0000 C CNN
F 2 "Connector_PinHeader_2.54mm:PinHeader_1x02_P2.54mm_Vertical" H 750 6150 50  0001 C CNN
F 3 "" H 750 6150 50  0000 C CNN
	1    750  6150
	-1   0    0    1   
$EndComp
$Comp
L Device:R R29
U 1 1 58E19E51
P 1550 6250
F 0 "R29" V 1630 6250 50  0000 C CNN
F 1 "10K" V 1550 6250 50  0000 C CNN
F 2 "Resistor_SMD:R_0603_1608Metric_Pad0.84x1.00mm_HandSolder" V 1480 6250 50  0001 C CNN
F 3 "" H 1550 6250 50  0001 C CNN
	1    1550 6250
	-1   0    0    1   
$EndComp
Text Label 2400 5350 2    60   ~ 0
P3V3
Wire Wire Line
	2100 5350 2400 5350
Wire Wire Line
	2100 5350 2100 5450
$Comp
L power:GND #PWR03
U 1 1 58E1A612
P 1050 5750
F 0 "#PWR03" H 1050 5500 50  0001 C CNN
F 1 "GND" H 1050 5600 50  0000 C CNN
F 2 "" H 1050 5750 50  0000 C CNN
F 3 "" H 1050 5750 50  0000 C CNN
	1    1050 5750
	1    0    0    -1  
$EndComp
Wire Wire Line
	1300 5650 1300 5750
Wire Wire Line
	1050 5650 1300 5650
Wire Wire Line
	1600 5750 1300 5750
Connection ~ 1300 5750
Wire Wire Line
	1300 5850 1600 5850
$Comp
L power:GND #PWR04
U 1 1 58E1AF98
P 1050 6200
F 0 "#PWR04" H 1050 5950 50  0001 C CNN
F 1 "GND" H 1050 6050 50  0000 C CNN
F 2 "" H 1050 6200 50  0000 C CNN
F 3 "" H 1050 6200 50  0000 C CNN
	1    1050 6200
	1    0    0    -1  
$EndComp
Text Notes 3250 5350 0    60   ~ 0
EEPROM WRITE ENABLE
Text Notes 1550 7050 0    118  ~ 24
Pullup Resistors
Text Notes 2000 4800 0    118  ~ 24
HAT EEPROM
Text Notes 5300 5700 0    118  ~ 24
Mounting Holes
Text Notes 1650 2000 0    118  ~ 24
40-Pin HAT Connector
Wire Wire Line
	2000 4150 800  4150
Text Label 800  3550 0    60   ~ 0
ID_SD_EEPROM
Wire Wire Line
	2000 3550 800  3550
Text Label 800  3450 0    60   ~ 0
GND
Wire Wire Line
	2000 3450 800  3450
Wire Wire Line
	2000 2650 650  2650
Text Label 800  2250 0    60   ~ 0
P3V3
Wire Wire Line
	2000 2250 800  2250
Wire Wire Line
	3200 2850 4550 2850
Wire Wire Line
	3200 3150 4550 3150
Wire Wire Line
	3200 3550 4400 3550
Wire Wire Line
	3200 3650 4550 3650
Wire Wire Line
	3200 3850 4550 3850
Text Label 4400 3550 2    60   ~ 0
ID_SC_EEPROM
Wire Wire Line
	3200 2450 4550 2450
Text Label 4400 2350 2    60   ~ 0
P5V
Wire Wire Line
	3200 2350 4400 2350
Text Label 4400 2250 2    60   ~ 0
P5V
Wire Wire Line
	3200 2250 4400 2250
Wire Wire Line
	2700 7650 2700 7400
Text Notes 1200 5200 0    60   ~ 0
The HAT spec requires this EEPROM with system information\nto be in place in order to be called a HAT. It should be set up as write\nprotected (WP pin held high), so it may be desirable to either put a \njumper as shown to enable writing, or to hook up a spare IO pin to do so.
Text Notes 1100 7250 0    60   ~ 0
These are just pullup resistors for the I2C bus on the EEPROM.\nThe resistor values are per the HAT spec.
Text Notes 850  1250 0    100  ~ 0
This is based on the official Raspberry Pi spec to be able to call an extension board a HAT.\nhttps://github.com/raspberrypi/hats/blob/master/designguide.md
$Comp
L power:GND #PWR05
U 1 1 58E3CC10
P 2100 6350
F 0 "#PWR05" H 2100 6100 50  0001 C CNN
F 1 "GND" H 2100 6200 50  0000 C CNN
F 2 "" H 2100 6350 50  0000 C CNN
F 3 "" H 2100 6350 50  0000 C CNN
	1    2100 6350
	1    0    0    -1  
$EndComp
Wire Wire Line
	2100 6250 2100 6350
Text Label 1800 6550 2    60   ~ 0
P3V3
Wire Wire Line
	1800 6550 1550 6550
Wire Wire Line
	1550 6550 1550 6400
Wire Wire Line
	1050 5650 1050 5750
Connection ~ 1300 5650
Wire Wire Line
	950  6150 1050 6150
Wire Wire Line
	1050 6200 1050 6150
Wire Wire Line
	2700 7400 3150 7400
Wire Wire Line
	1300 5750 1300 5850
Wire Wire Line
	1300 5650 1600 5650
Wire Wire Line
	1550 6050 1600 6050
Wire Wire Line
	1550 6050 1550 6100
Text Label 800  2350 0    50   ~ 0
SDA
Text Label 800  2450 0    50   ~ 0
SCL
Wire Wire Line
	2000 2350 800  2350
Wire Wire Line
	2000 2450 800  2450
Wire Wire Line
	14150 2550 14600 2550
Wire Wire Line
	14150 2450 14750 2450
NoConn ~ 13050 3150
Text Label 4400 2550 2    50   ~ 0
TXD0
Text Label 4400 2650 2    50   ~ 0
RXD0
Wire Wire Line
	4400 2550 3200 2550
Wire Wire Line
	4400 2650 3200 2650
Text Label 800  2550 0    50   ~ 0
TXD2
Wire Wire Line
	800  2550 2000 2550
Text Label 12550 2650 0    50   ~ 0
CTS
Wire Wire Line
	13050 2650 12550 2650
Text Label 800  2750 0    50   ~ 0
RTS0
Text Label 800  2950 0    50   ~ 0
R64_UART1_TX
Text Label 800  2850 0    50   ~ 0
PI_GPIO27
Wire Wire Line
	2000 2750 800  2750
Wire Wire Line
	2000 2850 800  2850
Wire Wire Line
	2000 2950 800  2950
Text Label 800  3150 0    50   ~ 0
PI_GPIO10
Text Label 800  3250 0    50   ~ 0
RXD3
Text Label 800  3650 0    50   ~ 0
RXD2
Text Label 800  3750 0    50   ~ 0
PI_GPIO6
Wire Wire Line
	2000 3650 800  3650
Wire Wire Line
	2000 3750 800  3750
Text Label 14600 2750 2    50   ~ 0
RXD
Text Label 14600 2850 2    50   ~ 0
TXD
Wire Wire Line
	14600 2750 14150 2750
Wire Wire Line
	14600 2850 14150 2850
Text Label 14600 2650 2    50   ~ 0
VBAT
Wire Wire Line
	14600 2650 14150 2650
$Comp
L SparkFun-Resistors:RESISTOR0805 R1
U 1 1 6013E63F
P 8600 3400
F 0 "R1" V 8505 3468 45  0000 L CNN
F 1 "390" V 8589 3468 45  0000 L CNN
F 2 "Resistor_SMD:R_0805_2012Metric" H 8600 3550 20  0001 C CNN
F 3 "" H 8600 3400 60  0001 C CNN
F 4 " " V 8684 3468 60  0000 L CNN "Field4"
	1    8600 3400
	0    1    1    0   
$EndComp
Text Label 9800 3050 2    50   ~ 0
VBAT
Wire Wire Line
	7700 3050 8100 3050
$Comp
L SparkFun-Capacitors:1.0UF-0402-16V-10% C1
U 1 1 6016983D
P 9400 3400
F 0 "C1" H 9508 3545 45  0000 L CNN
F 1 "1.0uF" H 9508 3461 45  0000 L CNN
F 2 "Capacitor_SMD:C_0402_1005Metric" H 9400 3650 20  0001 C CNN
F 3 "" H 9400 3400 50  0001 C CNN
F 4 "CAP-12417" H 9508 3366 60  0001 L CNN "Field4"
F 5 "Ceramic" H 9400 3400 50  0001 C CNN "Type"
	1    9400 3400
	1    0    0    -1  
$EndComp
Wire Wire Line
	13050 2450 12200 2450
$Comp
L dk_Coaxial-Connectors-RF:U_FL-R-SMT_10_ J1
U 1 1 601A1851
P 12350 3450
F 0 "J1" H 12428 3675 50  0000 C CNN
F 1 "U_FL-R-SMT_10_" H 12428 3584 50  0000 C CNN
F 2 "Skytraq:Combination_U.FL_SMA" H 12550 3650 60  0001 L CNN
F 3 "https://media.digikey.com/pdf/Data%20Sheets/Hirose%20PDFs/UFL%20Series.pdf" H 12550 3750 60  0001 L CNN
F 4 "H9161CT-ND" H 12550 3850 60  0001 L CNN "Digi-Key_PN"
F 5 "U.FL-R-SMT(10)" H 12550 3950 60  0001 L CNN "MPN"
F 6 "Connectors, Interconnects" H 12550 4050 60  0001 L CNN "Category"
F 7 "Coaxial Connectors (RF)" H 12550 4150 60  0001 L CNN "Family"
F 8 "https://media.digikey.com/pdf/Data%20Sheets/Hirose%20PDFs/UFL%20Series.pdf" H 12550 4250 60  0001 L CNN "DK_Datasheet_Link"
F 9 "/product-detail/en/hirose-electric-co-ltd/U.FL-R-SMT(10)/H9161CT-ND/2135256" H 12550 4350 60  0001 L CNN "DK_Detail_Page"
F 10 "CONN U.FL RCPT STR 50 OHM SMD" H 12550 4450 60  0001 L CNN "Description"
F 11 "Hirose Electric Co Ltd" H 12550 4550 60  0001 L CNN "Manufacturer"
F 12 "Active" H 12550 4650 60  0001 L CNN "Status"
	1    12350 3450
	1    0    0    -1  
$EndComp
Text Label 12550 2450 0    50   ~ 0
BOOT_SEL
$Comp
L SparkFun-Capacitors:1.0UF-0402-16V-10% C2
U 1 1 601FE0CB
P 8100 3400
F 0 "C2" H 8200 3500 45  0000 L CNN
F 1 "1.0uF" H 8200 3400 45  0000 L CNN
F 2 "Capacitor_SMD:C_0402_1005Metric" H 8100 3650 20  0001 C CNN
F 3 "" H 8100 3400 50  0001 C CNN
F 4 "CAP-12417" H 8208 3366 60  0001 L CNN "Field4"
F 5 "Ceramic" H 8100 3400 50  0001 C CNN "Type"
	1    8100 3400
	1    0    0    -1  
$EndComp
$Comp
L Skytraq:PX1122C U1
U 1 1 6021765F
P 13600 3050
F 0 "U1" H 13600 3965 50  0000 C CNN
F 1 "PX1122C" H 13600 3874 50  0000 C CNN
F 2 "Skytraq:module-24DIL" H 13600 3783 50  0000 C CNN
F 3 "" H 13600 2400 50  0001 C CNN
	1    13600 3050
	1    0    0    -1  
$EndComp
Wire Wire Line
	14150 3550 14600 3550
Wire Wire Line
	12350 3650 12350 3750
Wire Wire Line
	13050 3350 12900 3350
Wire Wire Line
	13050 3550 12900 3550
Wire Wire Line
	1250 7400 2200 7400
Wire Wire Line
	1250 7650 2200 7650
Wire Wire Line
	1550 6050 950  6050
Connection ~ 1550 6050
$Comp
L power:GND #PWR0102
U 1 1 600EF262
P 12350 3750
F 0 "#PWR0102" H 12350 3500 50  0001 C CNN
F 1 "GND" H 12355 3577 50  0000 C CNN
F 2 "" H 12350 3750 50  0001 C CNN
F 3 "" H 12350 3750 50  0001 C CNN
	1    12350 3750
	1    0    0    -1  
$EndComp
$Comp
L power:GND #PWR0103
U 1 1 600EFE45
P 14600 3550
F 0 "#PWR0103" H 14600 3300 50  0001 C CNN
F 1 "GND" H 14605 3377 50  0000 C CNN
F 2 "" H 14600 3550 50  0001 C CNN
F 3 "" H 14600 3550 50  0001 C CNN
	1    14600 3550
	1    0    0    -1  
$EndComp
$Comp
L power:GND #PWR0104
U 1 1 600F0A51
P 14750 2450
F 0 "#PWR0104" H 14750 2200 50  0001 C CNN
F 1 "GND" H 14755 2277 50  0000 C CNN
F 2 "" H 14750 2450 50  0001 C CNN
F 3 "" H 14750 2450 50  0001 C CNN
	1    14750 2450
	1    0    0    -1  
$EndComp
$Comp
L power:GND #PWR0105
U 1 1 600F0D52
P 12350 2550
F 0 "#PWR0105" H 12350 2300 50  0001 C CNN
F 1 "GND" H 12355 2377 50  0000 C CNN
F 2 "" H 12350 2550 50  0001 C CNN
F 3 "" H 12350 2550 50  0001 C CNN
	1    12350 2550
	1    0    0    -1  
$EndComp
$Comp
L power:GND #PWR0106
U 1 1 600F12B4
P 9800 4300
F 0 "#PWR0106" H 9800 4050 50  0001 C CNN
F 1 "GND" H 9805 4127 50  0000 C CNN
F 2 "" H 9800 4300 50  0001 C CNN
F 3 "" H 9800 4300 50  0001 C CNN
	1    9800 4300
	1    0    0    -1  
$EndComp
Wire Wire Line
	12350 2550 12200 2550
$Comp
L power:GND #PWR0107
U 1 1 600F4787
P 12900 3550
F 0 "#PWR0107" H 12900 3300 50  0001 C CNN
F 1 "GND" H 12905 3377 50  0000 C CNN
F 2 "" H 12900 3550 50  0001 C CNN
F 3 "" H 12900 3550 50  0001 C CNN
	1    12900 3550
	1    0    0    -1  
$EndComp
$Comp
L raspberrypi_hat:OX40HAT J3
U 1 1 58DFC771
P 2600 2250
F 0 "J3" H 2950 2350 50  0000 C CNN
F 1 "40HAT" H 2300 2350 50  0000 C CNN
F 2 "Connector_PinSocket_2.54mm:PinSocket_2x20_P2.54mm_Vertical" H 2600 2450 50  0001 C CNN
F 3 "" H 1900 2250 50  0000 C CNN
	1    2600 2250
	1    0    0    -1  
$EndComp
$Comp
L Connector_Generic:Conn_01x02 J2
U 1 1 600AC111
P 12000 2550
F 0 "J2" H 11918 2225 50  0000 C CNN
F 1 "Conn_01x02" H 11918 2316 50  0000 C CNN
F 2 "Connector_PinHeader_2.54mm:PinHeader_1x02_P2.54mm_Vertical" H 12000 2550 50  0001 C CNN
F 3 "~" H 12000 2550 50  0001 C CNN
	1    12000 2550
	-1   0    0    1   
$EndComp
Wire Wire Line
	12550 3450 13050 3450
Text Label 10350 6050 2    50   ~ 0
SDA
Text Label 10350 5950 2    50   ~ 0
SCL
$Comp
L power:GND #PWR0109
U 1 1 600E9E70
P 10350 6250
F 0 "#PWR0109" H 10350 6000 50  0001 C CNN
F 1 "GND" H 10355 6077 50  0000 C CNN
F 2 "" H 10350 6250 50  0001 C CNN
F 3 "" H 10350 6250 50  0001 C CNN
	1    10350 6250
	1    0    0    -1  
$EndComp
Text Label 10350 6150 2    60   ~ 0
P3V3
Wire Wire Line
	10100 5950 10350 5950
Wire Wire Line
	10100 6050 10350 6050
Wire Wire Line
	10100 6150 10350 6150
Wire Wire Line
	10100 6250 10350 6250
$Comp
L power:GND #PWR0110
U 1 1 600F318A
P 4550 3850
F 0 "#PWR0110" H 4550 3600 50  0001 C CNN
F 1 "GND" H 4555 3677 50  0000 C CNN
F 2 "" H 4550 3850 50  0001 C CNN
F 3 "" H 4550 3850 50  0001 C CNN
	1    4550 3850
	1    0    0    -1  
$EndComp
$Comp
L power:GND #PWR0111
U 1 1 600F3AF6
P 4550 3150
F 0 "#PWR0111" H 4550 2900 50  0001 C CNN
F 1 "GND" H 4555 2977 50  0000 C CNN
F 2 "" H 4550 3150 50  0001 C CNN
F 3 "" H 4550 3150 50  0001 C CNN
	1    4550 3150
	1    0    0    -1  
$EndComp
$Comp
L power:GND #PWR0112
U 1 1 600F3ECC
P 4550 2850
F 0 "#PWR0112" H 4550 2600 50  0001 C CNN
F 1 "GND" H 4555 2677 50  0000 C CNN
F 2 "" H 4550 2850 50  0001 C CNN
F 3 "" H 4550 2850 50  0001 C CNN
	1    4550 2850
	1    0    0    -1  
$EndComp
$Comp
L power:GND #PWR0113
U 1 1 600F419D
P 800 4150
F 0 "#PWR0113" H 800 3900 50  0001 C CNN
F 1 "GND" H 805 3977 50  0000 C CNN
F 2 "" H 800 4150 50  0001 C CNN
F 3 "" H 800 4150 50  0001 C CNN
	1    800  4150
	1    0    0    -1  
$EndComp
Wire Wire Line
	2000 3150 800  3150
Wire Wire Line
	2000 3250 800  3250
Text Label 800  3050 0    60   ~ 0
P3V3
Wire Wire Line
	2000 3050 800  3050
$Comp
L power:GND #PWR0114
U 1 1 600FE187
P 4550 2450
F 0 "#PWR0114" H 4550 2200 50  0001 C CNN
F 1 "GND" H 4555 2277 50  0000 C CNN
F 2 "" H 4550 2450 50  0001 C CNN
F 3 "" H 4550 2450 50  0001 C CNN
	1    4550 2450
	1    0    0    -1  
$EndComp
$Comp
L power:GND #PWR0115
U 1 1 60100EA5
P 650 2650
F 0 "#PWR0115" H 650 2400 50  0001 C CNN
F 1 "GND" H 655 2477 50  0000 C CNN
F 2 "" H 650 2650 50  0001 C CNN
F 3 "" H 650 2650 50  0001 C CNN
	1    650  2650
	1    0    0    -1  
$EndComp
Text Label 7700 3050 0    60   ~ 0
P3V3
Text Label 14600 2550 2    60   ~ 0
P3V3
$Comp
L SparkFun-Connectors:QWIIC_CONNECTORJS-1MM QWIIC1
U 1 1 60104FB9
P 10000 6250
F 0 "QWIIC1" H 9958 6860 45  0000 C CNN
F 1 "QWIIC_CONNECTORJS-1MM" H 9958 6776 45  0000 C CNN
F 2 "1X04_1MM_RA" H 10000 6750 20  0001 C CNN
F 3 "" H 10000 6250 50  0001 C CNN
F 4 "CONN-13694" H 9958 6681 60  0000 C CNN "Field4"
	1    10000 6250
	1    0    0    -1  
$EndComp
$Comp
L power:GND #PWR0101
U 1 1 6010A7F7
P 4550 3650
F 0 "#PWR0101" H 4550 3400 50  0001 C CNN
F 1 "GND" H 4555 3477 50  0000 C CNN
F 2 "" H 4550 3650 50  0001 C CNN
F 3 "" H 4550 3650 50  0001 C CNN
	1    4550 3650
	1    0    0    -1  
$EndComp
Wire Wire Line
	12900 3350 12900 3550
Connection ~ 12900 3550
$Comp
L SparkFun-Batteries:BATTERY-20MM_SMD BT1
U 1 1 6013CA59
P 8600 3950
F 0 "BT1" V 8500 4250 45  0000 R CNN
F 1 "BATTERY-20MM_SMD" V 8600 4800 45  0000 R CNN
F 2 "Battery:BatteryHolder_Keystone_3034_1x20mm" H 8600 4200 20  0001 C CNN
F 3 "" H 8600 3950 50  0001 C CNN
F 4 "BATT-11519" V 8700 4700 60  0000 R CNN "Field4"
	1    8600 3950
	0    1    1    0   
$EndComp
Wire Wire Line
	8600 3050 9400 3050
Wire Wire Line
	9400 3200 9400 3050
Connection ~ 9400 3050
Wire Wire Line
	9400 3050 9800 3050
Wire Wire Line
	8100 3200 8100 3050
Text Label 4400 3350 2    50   ~ 0
TXD3
Wire Wire Line
	3200 3350 4400 3350
Text Label 4400 3750 2    50   ~ 0
TXD4
Wire Wire Line
	3200 3750 4400 3750
Text Label 800  3850 0    50   ~ 0
RXD4
Wire Wire Line
	800  3850 2000 3850
Wire Wire Line
	8600 3050 8600 3200
Connection ~ 8100 3050
Wire Wire Line
	8100 3050 8250 3050
$Comp
L Device:D_Schottky_Small D1
U 1 1 602395DD
P 8350 3050
F 0 "D1" H 8350 2843 50  0000 C CNN
F 1 "RB420DFHT146" H 8350 2934 50  0000 C CNN
F 2 "Skytraq:RB420DFHT146" V 8350 3050 50  0001 C CNN
F 3 "https://au.mouser.com/datasheet/2/348/rb420dfht146-e-1870220.pdf" V 8350 3050 50  0001 C CNN
	1    8350 3050
	-1   0    0    1   
$EndComp
Wire Wire Line
	8450 3050 8600 3050
Connection ~ 8600 3050
Wire Wire Line
	8600 3600 8600 3750
Wire Wire Line
	8600 4150 8600 4300
Wire Wire Line
	8600 4300 9400 4300
Wire Wire Line
	9400 3500 9400 4300
Connection ~ 9400 4300
Wire Wire Line
	9400 4300 9800 4300
Wire Wire Line
	8100 4300 8600 4300
Wire Wire Line
	8100 3500 8100 4300
Connection ~ 8600 4300
Text Label 4400 3950 2    50   ~ 0
PI_GPIO16
Wire Wire Line
	4400 3950 3200 3950
Text Label 11300 4750 0    50   ~ 0
TXD0
Text Label 11300 5100 0    50   ~ 0
TXD2
Text Label 11300 5450 0    50   ~ 0
TXD3
Text Label 11300 5800 0    50   ~ 0
TXD4
$Comp
L Jumper:SolderJumper_2_Open JP1
U 1 1 604C5DDD
P 11950 4750
F 0 "JP1" H 11950 4955 50  0000 C CNN
F 1 "TXD0" H 11950 4864 50  0000 C CNN
F 2 "Jumper:SolderJumper-2_P1.3mm_Open_RoundedPad1.0x1.5mm" H 11950 4750 50  0001 C CNN
F 3 "~" H 11950 4750 50  0001 C CNN
	1    11950 4750
	1    0    0    -1  
$EndComp
Wire Wire Line
	11300 4750 11800 4750
$Comp
L Jumper:SolderJumper_2_Open JP2
U 1 1 604CAB66
P 11950 5100
F 0 "JP2" H 11950 5305 50  0000 C CNN
F 1 "TXD2" H 11950 5214 50  0000 C CNN
F 2 "Jumper:SolderJumper-2_P1.3mm_Open_RoundedPad1.0x1.5mm" H 11950 5100 50  0001 C CNN
F 3 "~" H 11950 5100 50  0001 C CNN
	1    11950 5100
	1    0    0    -1  
$EndComp
$Comp
L Jumper:SolderJumper_2_Open JP3
U 1 1 604CC07B
P 11950 5450
F 0 "JP3" H 11950 5655 50  0000 C CNN
F 1 "TXD3" H 11950 5564 50  0000 C CNN
F 2 "Jumper:SolderJumper-2_P1.3mm_Open_RoundedPad1.0x1.5mm" H 11950 5450 50  0001 C CNN
F 3 "~" H 11950 5450 50  0001 C CNN
	1    11950 5450
	1    0    0    -1  
$EndComp
$Comp
L Jumper:SolderJumper_2_Open JP4
U 1 1 604CCB5D
P 11950 5800
F 0 "JP4" H 11950 6005 50  0000 C CNN
F 1 "TXD4" H 11950 5914 50  0000 C CNN
F 2 "Jumper:SolderJumper-2_P1.3mm_Open_RoundedPad1.0x1.5mm" H 11950 5800 50  0001 C CNN
F 3 "~" H 11950 5800 50  0001 C CNN
	1    11950 5800
	1    0    0    -1  
$EndComp
Wire Wire Line
	11300 5100 11800 5100
Wire Wire Line
	11300 5450 11800 5450
Wire Wire Line
	11300 5800 11800 5800
Text Label 12650 4750 2    50   ~ 0
TXD
Wire Wire Line
	12100 4750 12450 4750
Wire Wire Line
	12100 5100 12450 5100
Wire Wire Line
	12450 5100 12450 4750
Connection ~ 12450 4750
Wire Wire Line
	12450 4750 12650 4750
Wire Wire Line
	12100 5450 12450 5450
Wire Wire Line
	12450 5450 12450 5100
Connection ~ 12450 5100
Wire Wire Line
	12100 5800 12450 5800
Wire Wire Line
	12450 5800 12450 5450
Connection ~ 12450 5450
Text Label 13800 4800 0    50   ~ 0
RXD0
Text Label 13800 5150 0    50   ~ 0
RXD2
Text Label 13800 5500 0    50   ~ 0
RXD3
Text Label 13800 5850 0    50   ~ 0
RXD4
$Comp
L Jumper:SolderJumper_2_Open JP6
U 1 1 604F4189
P 14450 4800
F 0 "JP6" H 14450 5005 50  0000 C CNN
F 1 "RXD0" H 14450 4914 50  0000 C CNN
F 2 "Jumper:SolderJumper-2_P1.3mm_Open_RoundedPad1.0x1.5mm" H 14450 4800 50  0001 C CNN
F 3 "~" H 14450 4800 50  0001 C CNN
	1    14450 4800
	1    0    0    -1  
$EndComp
Wire Wire Line
	13800 4800 14300 4800
$Comp
L Jumper:SolderJumper_2_Open JP7
U 1 1 604F4190
P 14450 5150
F 0 "JP7" H 14450 5355 50  0000 C CNN
F 1 "RXD2" H 14450 5264 50  0000 C CNN
F 2 "Jumper:SolderJumper-2_P1.3mm_Open_RoundedPad1.0x1.5mm" H 14450 5150 50  0001 C CNN
F 3 "~" H 14450 5150 50  0001 C CNN
	1    14450 5150
	1    0    0    -1  
$EndComp
$Comp
L Jumper:SolderJumper_2_Open JP8
U 1 1 604F4196
P 14450 5500
F 0 "JP8" H 14450 5705 50  0000 C CNN
F 1 "RXD3" H 14450 5614 50  0000 C CNN
F 2 "Jumper:SolderJumper-2_P1.3mm_Open_RoundedPad1.0x1.5mm" H 14450 5500 50  0001 C CNN
F 3 "~" H 14450 5500 50  0001 C CNN
	1    14450 5500
	1    0    0    -1  
$EndComp
$Comp
L Jumper:SolderJumper_2_Open JP9
U 1 1 604F419C
P 14450 5850
F 0 "JP9" H 14450 6055 50  0000 C CNN
F 1 "RXD4" H 14450 5964 50  0000 C CNN
F 2 "Jumper:SolderJumper-2_P1.3mm_Open_RoundedPad1.0x1.5mm" H 14450 5850 50  0001 C CNN
F 3 "~" H 14450 5850 50  0001 C CNN
	1    14450 5850
	1    0    0    -1  
$EndComp
Wire Wire Line
	13800 5150 14300 5150
Wire Wire Line
	13800 5500 14300 5500
Wire Wire Line
	13800 5850 14300 5850
Text Label 15150 4800 2    50   ~ 0
RXD
Wire Wire Line
	14600 4800 14950 4800
Wire Wire Line
	14600 5150 14950 5150
Wire Wire Line
	14950 5150 14950 4800
Connection ~ 14950 4800
Wire Wire Line
	14950 4800 15150 4800
Wire Wire Line
	14600 5500 14950 5500
Wire Wire Line
	14950 5500 14950 5150
Connection ~ 14950 5150
Wire Wire Line
	14600 5850 14950 5850
Wire Wire Line
	14950 5850 14950 5500
Connection ~ 14950 5500
Text Label 11250 7000 0    50   ~ 0
PI_GPIO16
Text Label 11250 7350 0    50   ~ 0
PI_GPIO6
Text Label 11250 7700 0    50   ~ 0
PI_GPIO10
$Comp
L Jumper:SolderJumper_2_Open JP11
U 1 1 604FC59C
P 11900 7000
F 0 "JP11" H 11900 7205 50  0000 C CNN
F 1 "PI GPIO 16" H 11900 7114 50  0000 C CNN
F 2 "Jumper:SolderJumper-2_P1.3mm_Open_RoundedPad1.0x1.5mm" H 11900 7000 50  0001 C CNN
F 3 "~" H 11900 7000 50  0001 C CNN
	1    11900 7000
	1    0    0    -1  
$EndComp
Wire Wire Line
	11250 7000 11750 7000
$Comp
L Jumper:SolderJumper_2_Open JP12
U 1 1 604FC5A7
P 11900 7350
F 0 "JP12" H 11900 7555 50  0000 C CNN
F 1 "PI GPIO 6" H 11900 7464 50  0000 C CNN
F 2 "Jumper:SolderJumper-2_P1.3mm_Open_RoundedPad1.0x1.5mm" H 11900 7350 50  0001 C CNN
F 3 "~" H 11900 7350 50  0001 C CNN
	1    11900 7350
	1    0    0    -1  
$EndComp
$Comp
L Jumper:SolderJumper_2_Open JP13
U 1 1 604FC5B1
P 11900 7700
F 0 "JP13" H 11900 7905 50  0000 C CNN
F 1 "PI GPIO 10" H 11900 7814 50  0000 C CNN
F 2 "Jumper:SolderJumper-2_P1.3mm_Open_RoundedPad1.0x1.5mm" H 11900 7700 50  0001 C CNN
F 3 "~" H 11900 7700 50  0001 C CNN
	1    11900 7700
	1    0    0    -1  
$EndComp
Wire Wire Line
	11250 7350 11750 7350
Wire Wire Line
	11250 7700 11750 7700
Text Label 12600 7000 2    50   ~ 0
CTS
Wire Wire Line
	12050 7000 12400 7000
Wire Wire Line
	12050 7350 12400 7350
Wire Wire Line
	12400 7350 12400 7000
Connection ~ 12400 7000
Wire Wire Line
	12400 7000 12600 7000
Wire Wire Line
	12050 7700 12400 7700
Wire Wire Line
	12400 7700 12400 7350
Connection ~ 12400 7350
Text Label 4400 3050 2    50   ~ 0
R64_UART1_RX
Text Label 4400 3250 2    50   ~ 0
R64_UART1_CTS
Wire Wire Line
	3200 3050 4400 3050
Wire Wire Line
	3200 3250 4400 3250
$Comp
L Jumper:SolderJumper_2_Open JP5
U 1 1 6049E393
P 11950 6150
F 0 "JP5" H 11950 6355 50  0000 C CNN
F 1 "ROCK64" H 11950 6264 50  0000 C CNN
F 2 "Jumper:SolderJumper-2_P1.3mm_Open_RoundedPad1.0x1.5mm" H 11950 6150 50  0001 C CNN
F 3 "~" H 11950 6150 50  0001 C CNN
	1    11950 6150
	1    0    0    -1  
$EndComp
Text Label 11300 6150 0    50   ~ 0
R64_UART1_TX
$Comp
L Jumper:SolderJumper_2_Open JP10
U 1 1 604AA001
P 14450 6200
F 0 "JP10" H 14450 6405 50  0000 C CNN
F 1 "ROCK64" H 14450 6314 50  0000 C CNN
F 2 "Jumper:SolderJumper-2_P1.3mm_Open_RoundedPad1.0x1.5mm" H 14450 6200 50  0001 C CNN
F 3 "~" H 14450 6200 50  0001 C CNN
	1    14450 6200
	1    0    0    -1  
$EndComp
Text Label 13800 6200 0    50   ~ 0
R64_UART1_RX
Wire Wire Line
	13800 6200 14300 6200
Wire Wire Line
	14600 6200 14950 6200
Wire Wire Line
	14950 6200 14950 5850
Connection ~ 14950 5850
Wire Wire Line
	11300 6150 11800 6150
Wire Wire Line
	12100 6150 12450 6150
Wire Wire Line
	12450 6150 12450 5800
Connection ~ 12450 5800
$Comp
L Jumper:SolderJumper_2_Open JP14
U 1 1 604C2815
P 11900 8050
F 0 "JP14" H 11900 8255 50  0000 C CNN
F 1 "PI GPIO 18" H 11900 8164 50  0000 C CNN
F 2 "Jumper:SolderJumper-2_P1.3mm_Open_RoundedPad1.0x1.5mm" H 11900 8050 50  0001 C CNN
F 3 "~" H 11900 8050 50  0001 C CNN
	1    11900 8050
	1    0    0    -1  
$EndComp
Text Label 11250 8050 0    50   ~ 0
PI_GPIO18
Wire Wire Line
	11250 8050 11750 8050
Wire Wire Line
	12050 8050 12400 8050
Wire Wire Line
	12400 8050 12400 7700
Connection ~ 12400 7700
Text Label 4400 2750 2    50   ~ 0
PI_GPIO18
Wire Wire Line
	4400 2750 3200 2750
$Comp
L Jumper:SolderJumper_2_Open JP15
U 1 1 604DB31B
P 11900 8400
F 0 "JP15" H 11900 8605 50  0000 C CNN
F 1 "ROCK64 CTS" H 11900 8514 50  0000 C CNN
F 2 "Jumper:SolderJumper-2_P1.3mm_Open_RoundedPad1.0x1.5mm" H 11900 8400 50  0001 C CNN
F 3 "~" H 11900 8400 50  0001 C CNN
	1    11900 8400
	1    0    0    -1  
$EndComp
Text Label 11250 8400 0    50   ~ 0
R64_UART1_CTS
Wire Wire Line
	11250 8400 11750 8400
Wire Wire Line
	12050 8400 12400 8400
Wire Wire Line
	12400 8400 12400 8050
Connection ~ 12400 8050
$EndSCHEMATC
